
def qstr = "{ \"query\": { \"bool\": { \"must\": [{\"match\": {\"domainKey\": \"EEFRJGPUUH\"}}]     }     },     \"size\": 1,     \"sort\": []   }";

def rmap = [];

def r = record.search(350412,rmap, qstr);

log.info(r);

import groovy.json.JsonSlurper;


def qstr = '{ "query": { "match_all":{} }, 	"size" : 1, 	"from": 0, "sort": { "createdtime" :{"order" :"desc"} } }';

def r = record.search(350412,null, qstr);

def hits= r.hits.hits ;

def arr = hits.get(0);

println arr['_source']['gen'];

jsonData.each{
println it;
}
def qstrng = "{ \"query\": { \"bool\": { \"must\": [{\"match\": {\"domainKey\": \"EEFRJGPUUH\"}}]     }     },     \"size\": 1,     \"sort\": []   }";

def result = record.search(350409,null, qstr);
    
def hit= result.hits.hits ;

def array = hit.get(0);

def rec_id = array['_id'];

log.info("%s",rec_id)

[{"_index":"rec_350412_eefrjgpuuh","_type":"rec","_id":"8a65d8bb-0bfc-438e-b3ef-986be56023cc","_score":null,"_source":{"bc":0.234,"yv":242.72,"bp":0.032,"bv":225.66,"byv":427.44,"fre":49.89,"gen":0,"pf":0.89,"rbv":435.49,"rc":0.539,"rp":65.492,"rv":235.2,"tc":0.343667,"tp":43.683,"tpv":427.8733,"tv":234.5267,"yc":0.258,"yp":65.525,"yrv":420.69,"created":1530969045027,"createdtime":1530969045027,"domainKey":"EEFRJGPUUH"},"sort":[1530969045027]}]


log.info("Last record %s", r);
 
def qstrng = "{ \"query\": { \"bool\": { \"must\": [{\"match\": {\"domainKey\": \"EEFRJGPUUH\"}}]     }     },     \"size\": 1,     \"sort\": []   }";
            def result = record.search(350409,null, qstrng);
    
            def hit= result.hits.hits;
            
            def array = hit.get(0);
          
            def rec_id = array['_id'];
           log.info(rec_id);
		   def src_device_id = array['_source']['device_id'];
            def src_device_name = array['_source']['device_name'];
            def src_createtime = array['_source']['createdtime'];
             log.info(src_device_id);
			 
             def u_rec_map = ["device_id":"1", "device_name":"genset", "createdtime":"1531146962905",    updatedtime: "1531147149120"];
           def u_rec_id = record.insert(350409, "d0ef2a57-49fe-4c98-8010-96aa62394fbe", u_rec_map);//record.insert(350409,rec_map);
            log.info("Activity Updated %s", u_rec_id)

Last record {"took":0,"timed_out":false,"_shards":{"total":5,"successful":5,"failed":0},"hits":{"total":1765,"max_score":null,"hits":[{"_index":"rec_350412_eefrjgpuuh","_type":"rec","_id":"8a65d8bb-0bfc-438e-b3ef-986be56023cc","_score":null,"_source":{"bc":0.234,"yv":242.72,"bp":0.032,"bv":225.66,"byv":427.44,"fre":49.89,"gen":0,"pf":0.89,"rbv":435.49,"rc":0.539,"rp":65.492,"rv":235.2,"tc":0.343667,"tp":43.683,"tpv":427.8733,"tv":234.5267,"yc":0.258,"yp":65.525,"yrv":420.69,"created":1530969045027,"createdtime":1530969045027,"domainKey":"EEFRJGPUUH"},"sort":[1530969045027]}]}}

{ "query":{"bool":{"must":[{"match":{"domainKey":"EEFRJGPUUH"}}]}},"size" : 1,"from": 0, "sort": { "createdtime" :{"order" :"desc"} } }



def qstrng = "{ \"query\": { \"bool\": { \"must\": [{\"match\": {\"domainKey\": \"EEFRJGPUUH\"}}]     }     },     \"size\": 1,     \"sort\": { \"last_on_time\" :{\"order\" :\"desc\"} }    }";
            def result = record.search(350409,null, qstrng);
			log.info("%s",result);
            def hit= result.hits.hits;
            
            def array = hit.get(0);
            
            def rec_id = array['_id'];
            
            def src_device_id = array['_source']['device_id'];
            
            def src_device_name = array['_source']['device_name'];
            
            def src_createtime = array['_source']['last_on_time'];
			
			